test_reg32bit.vcd
$date
    Wed Feb  3 23:23:50 2021
$end
$version
    MyHDL 0.11
$end
$timescale
    1ns
$end

$scope module test_reg32bit $end
$var reg 32 ! par_out $end
$var reg 1 " clk $end
$var reg 1 # load $end
$var reg 32 $ par_in $end
$var reg 1 % reset $end
$scope module Reg_32bit0 $end
$var reg 1 " clk $end
$var reg 1 # load $end
$var reg 32 $ par_in $end
$var reg 32 ! par_out $end
$var reg 1 % reset $end
$upscope $end
$upscope $end

$enddefinitions $end
$dumpvars
b00000000000000000000000000000000 !
0"
0#
b00000000000000000000000000000000 $
0%
$end
#5
1%
1#
#10
1"
#20
0"
b11000111010110010011101110111111 $
#30
1"
b11000111010110010011101110111111 !
#40
0"
b10100011100011011101001111110110 $
#50
1"
b10100011100011011101001111110110 !
#57
0#
#60
0"
b01010111110000000101111001011011 $
#70
1"
#80
0"
b10010010010100001010010110001110 $
#89
1#
#90
1"
b10010010010100001010010110001110 !
#100
0"
b00011110010001000111101001110011 $
#110
1"
b00011110010001000111101001110011 !
#120
0"
b10010100101000100100010110111101 $
#130
1"
0#
#140
0"
b00010110100011011100101100011111 $
#150
1"
#153
1#
#160
0"
b11011010111011010011111111011101 $
#170
1"
b11011010111011010011111111011101 !
#180
0"
b00001101001111100011011110011101 $
#185
0#
#190
1"
#200
0"
b01111011010111100111111010110000 $
#210
1"
#212
1#
#220
0"
b00010001100000111110111001000000 $
#230
1"
b00010001100000111110111001000000 !
#240
0"
b11001000111010111011000001001100 $
#243
0#
#250
1"
#260
0"
b11000100111010000001110000110001 $
#270
1"
#271
1#
#280
0"
b00111101000000001111000010110011 $
#290
1"
b00111101000000001111000010110011 !
#300
0"
b10010011010101110000011101110110 $
#310
1"
b10010011010101110000011101110110 !
#320
0"
b10010110010011010101101010000011 $
#330
1"
b10010110010011010101101010000011 !
#331
0#
#340
0"
b01001100010000000000011011001001 $
#350
1"
#360
0"
b00001010011111110100101101010011 $
#364
1#
#370
1"
b00001010011111110100101101010011 !
#380
0"
b01010001001111111011111000001010 $
#390
1"
b01010001001111111011111000001010 !
#394
0#
#400
0"
b11101110100100100010001101101001 $
#410
1"
#420
0"
b10101010010011011001100001010011 $
#424
1#
#430
1"
b10101010010011011001100001010011 !
#440
0"
b01111011110101010111010111110111 $
#450
1"
b01111011110101010111010111110111 !
#460
0"
b10111000100100101100101110001100 $
#466
0#
#470
1"
#480
0"
b00010011000100001010110011110100 $
#490
1"
#500
0"
1#
b01110110011001101011010001001100 $
#510
1"
b01110110011001101011010001001100 !
#520
0"
b01110011000110001001101011100011 $
#530
1"
b01110011000110001001101011100011 !
#533
0#
#540
0"
b10000011000010110110010100101001 $
#550
1"
#560
0"
b11001011110111111001010001011001 $
#563
1#
#570
1"
b11001011110111111001010001011001 !
#580
0"
b01110110001101000010001011111111 $
#590
1"
b01110110001101000010001011111111 !
#598
0#
#600
0"
b00000001010101111010000110000011 $
#610
1"
#620
0"
b10001010000111010101111001111000 $
#630
1"
#631
1#
#640
0"
b00010011111001100000001000100001 $
#650
1"
b00010011111001100000001000100001 !
#660
0"
b01010010101000001011001101110100 $
#670
1"
b01010010101000001011001101110100 !
#675
0%
b00000000000000000000000000000000 !
#680
0"
b00100100000111101000000000110100 $
#689
0#
#690
1"
#700
0"
b00001111011010101010111001001001 $
#710
1"
#711
1#
#720
0"
b11101001011111111000011111100101 $
#730
1"
#740
0"
b00100111101100010010111110000001 $
#750
1"
#752
0#
#760
0"
b10011000000100101110001110110110 $
#770
1"
#780
0"
b11100011110001111011001010110010 $
#785
1#
#790
1"
#800
0"
b00111111011000000100001110100100 $
#810
1"
#820
0"
b00100111101111110001110101011100 $
#830
1"
#840
0"
b11001101011011001100001001110000 $
#849
0#
#850
1"
#860
0"
b11110110110011011000101111000000 $
#870
1"
#874
1#
#878
1%
#880
0"
b00111111100000101101101111000010 $
#890
1"
b00111111100000101101101111000010 !
#900
0"
b00011001000000000100100101000111 $
#910
1"
b00011001000000000100100101000111 !
#920
0"
b11110100110111001010011111001010 $
#927
0#
#930
1"
#940
0"
b00101001001000111000110111110001 $
#947
1#
#950
1"
b00101001001000111000110111110001 !
#960
0"
b10110001000000111101010011100110 $
#970
1"
b10110001000000111101010011100110 !
#980
0"
b01111010111011111011111011011111 $
#984
0#
#990
1"
#1000
0"
b10010110010001101100100110011010 $
#1008
1#
#1010
1"
b10010110010001101100100110011010 !
#1020
0"
b00110101110001001111110000111000 $
#1030
1"
b00110101110001001111110000111000 !
#1040
0"
0#
b00111000101101101111001110011010 $
#1050
1"
#1060
0"
b10100001000110100110110000110101 $
#1070
1"
#1072
1#
#1080
0"
b00101101110011011001110100000011 $
#1090
1"
b00101101110011011001110100000011 !
#1100
0"
b01001100111001100001100000011001 $
#1110
1"
b01001100111001100001100000011001 !
#1114
0#
#1120
0"
b00101010110001000110001110111100 $
#1130
1"
#1136
1#
#1140
0"
b10001111011011101110101000111010 $
#1150
1"
b10001111011011101110101000111010 !
#1160
0"
b01000100101100000011111111001001 $
#1170
1"
b01000100101100000011111111001001 !
#1175
0#
#1180
0"
b11101011100011010100110101011010 $
#1190
1"
#1200
0"
b11011010010001100101110011001010 $
#1204
1#
#1210
1"
b11011010010001100101110011001010 !
#1220
0"
b01010001000011110101000001110011 $
#1230
1"
b01010001000011110101000001110011 !
#1240
0"
b00100111111011101010010101010100 $
#1249
0#
#1250
1"
#1260
0"
b11010000110111101001111011010001 $
#1270
1"
#1280
0"
b01100011101110110011010011001100 $
#1282
1#
#1290
1"
b01100011101110110011010011001100 !
#1300
0"
b00101100011100011110010011011000 $
#1310
1"
b00101100011100011110010011011000 !
#1320
0"
b00000001000101101001000110011011 $
#1330
1"
b00000001000101101001000110011011 !
#1335
0#
#1340
0"
b10011011000001010110110000111110 $
#1350
1"
#1360
0"
b10101100000111001000111010110010 $
#1365
1#
#1370
1"
b10101100000111001000111010110010 !
#1380
0"
b10010100000001111111000001000001 $
#1390
1"
b10010100000001111111000001000001 !
#1396
0%
b00000000000000000000000000000000 !
#1400
0"
b11000111111000000111010101010100 $
#1410
1"
#1416
0#
#1420
0"
b01111011000000001001110010011000 $
#1430
1"
#1440
0"
b01110111010001010100101001011111 $
#1449
1#
#1450
1"
#1460
0"
b11100110000010111101101001001100 $
#1470
1"
#1480
0"
b00011110000100011111001011100011 $
#1490
1"
#1500
0"
b11011111001001110011111110110100 $
#1509
0#
#1510
1"
#1520
0"
b11101011001111011011100100110001 $
#1530
1"
#1533
1#
#1540
0"
b11110000010011011101100000100001 $
#1550
1"
#1560
0"
b01011101000110001010011101010111 $
#1570
1"
#1580
0"
b10111011001100010011000001100001 $
#1586
0#
#1590
1"
#1600
0"
b01001010011010100101100001000011 $
#1610
1"
#1618
1#
#1620
0"
b10000100111001101000100010101010 $
#1630
1"
#1640
0"
b01111001011000000001010111010100 $
#1650
1"
#1660
0"
b10101111110110110000100111111100 $
#1670
1"
#1677
0#
#1680
0"
b11001101110111110110111010010101 $
#1690
1"
#1700
0"
b00101001010100110011010101100111 $
#1706
1#
#1710
1"
#1720
0"
b01001011000101011000010001110100 $
#1730
1"
#1740
0"
b10101010110110001100110000010101 $
#1745
1%
#1750
1"
b10101010110110001100110000010101 !
#1760
0"
b11100000100100101010010111000010 $
#1765
0#
#1770
1"
#1780
0"
b11110001010011011101101011111010 $
#1790
1"
1#
b11110001010011011101101011111010 !
#1800
0"
b10010010001110011110010010001000 $
#1810
1"
b10010010001110011110010010001000 !
#1820
0"
b10111001011110100001111001000111 $
#1830
1"
b10111001011110100001111001000111 !
#1840
0"
b01110110100101010100010010101111 $
#1843
0#
#1850
1"
#1860
0"
b00010111011001000000110101101011 $
#1865
1#
#1870
1"
b00010111011001000000110101101011 !
#1880
0"
b10100100010101001110101100010000 $
#1890
1"
b10100100010101001110101100010000 !
#1897
0#
#1900
0"
b11110101110011011010011011000011 $
#1910
1"
#1920
0"
b11001111011011101110111111010011 $
#1930
1"
#1931
1#
#1940
0"
b10000001000010110110110111100110 $
#1950
1"
b10000001000010110110110111100110 !
#1960
0"
b10011001000001000110010010101100 $
#1969
0#
#1970
1"
#1980
0"
b01010101001101101100000001111010 $
#1990
1"
1#
b01010101001101101100000001111010 !
#2000
0"
b01101110010101000011001011100000 $
