Decoder-4bit/test_decoder.vcd
$date
    Wed Feb 10 00:16:48 2021
$end
$version
    MyHDL 0.11
$end
$timescale
    1ns
$end

$scope module test_decoder $end
$var reg 16 ! out $end
$var reg 1 " en $end
$var reg 4 # inp $end
$scope module decoder_4bit0 $end
$var reg 1 " enable $end
$var reg 4 # inpu $end
$var reg 16 ! out $end
$upscope $end
$upscope $end

$enddefinitions $end
$dumpvars
b0000000000000000 !
1"
b0000 #
$end
0"
#5
1"
#10
0"
b0001 #
#15
1"
b0000000000000010 !
#20
0"
b0010 #
b0000000000000000 !
#25
1"
b0000000000000100 !
#30
0"
b0011 #
b0000000000000000 !
#35
1"
b0000000000001000 !
#40
0"
b0100 #
b0000000000000000 !
#45
1"
b0000000000010000 !
#50
0"
b0101 #
b0000000000000000 !
#55
1"
b0000000000100000 !
#60
0"
b0110 #
b0000000000000000 !
#65
1"
b0000000001000000 !
#70
0"
b0111 #
b0000000000000000 !
#75
1"
b0000000010000000 !
#80
0"
b1000 #
b0000000000000000 !
#85
1"
b0000000100000000 !
#90
0"
b1001 #
b0000000000000000 !
#95
1"
b0000001000000000 !
#100
0"
b1010 #
b0000000000000000 !
#105
1"
b0000010000000000 !
#110
0"
b1011 #
b0000000000000000 !
#115
1"
b0000100000000000 !
#120
0"
b1100 #
b0000000000000000 !
#125
1"
b0001000000000000 !
#130
0"
b1101 #
b0000000000000000 !
#135
1"
b0010000000000000 !
#140
0"
b1110 #
b0000000000000000 !
#145
1"
b0100000000000000 !
#150
0"
b1111 #
b0000000000000000 !
#155
1"
b1000000000000000 !
#160
0"
b0000000000000000 !
#165
1"
b1000000000000000 !
#170
0"
b0000000000000000 !
#175
1"
b1000000000000000 !
#180
0"
b0000000000000000 !
#185
1"
b1000000000000000 !
#190
0"
b0000000000000000 !
#195
1"
b1000000000000000 !
#200
0"
b0000000000000000 !
#205
1"
b1000000000000000 !
#210
0"
b0000000000000000 !
#215
1"
b1000000000000000 !
#220
0"
b0000000000000000 !
#225
1"
b1000000000000000 !
#230
0"
b0000000000000000 !
#235
1"
b1000000000000000 !
#240
0"
b0000000000000000 !
#245
1"
b1000000000000000 !
#250
0"
b0000000000000000 !
#255
1"
b1000000000000000 !
#260
0"
b0000000000000000 !
#265
1"
b1000000000000000 !
#270
0"
b0000000000000000 !
#275
1"
b1000000000000000 !
#280
0"
b0000000000000000 !
#285
1"
b1000000000000000 !
#290
0"
b0000000000000000 !
#295
1"
b1000000000000000 !
#300
0"
b0000000000000000 !
#305
1"
b1000000000000000 !
#310
0"
b0000000000000000 !
#315
1"
b1000000000000000 !
#320
0"
b0000000000000000 !
#325
1"
b1000000000000000 !
#330
0"
b0000000000000000 !
#335
1"
b1000000000000000 !
#340
0"
b0000000000000000 !
#345
1"
b1000000000000000 !
#350
0"
b0000000000000000 !
#355
1"
b1000000000000000 !
#360
0"
b0000000000000000 !
#365
1"
b1000000000000000 !
#370
0"
b0000000000000000 !
#375
1"
b1000000000000000 !
#380
0"
b0000000000000000 !
#385
1"
b1000000000000000 !
#390
0"
b0000000000000000 !
#395
1"
b1000000000000000 !
#400
0"
b0000000000000000 !
#405
1"
b1000000000000000 !
#410
0"
b0000000000000000 !
#415
1"
b1000000000000000 !
#420
0"
b0000000000000000 !
#425
1"
b1000000000000000 !
#430
0"
b0000000000000000 !
#435
1"
b1000000000000000 !
#440
0"
b0000000000000000 !
#445
1"
b1000000000000000 !
#450
0"
b0000000000000000 !
#455
1"
b1000000000000000 !
#460
0"
b0000000000000000 !
#465
1"
b1000000000000000 !
#470
0"
b0000000000000000 !
#475
1"
b1000000000000000 !
#480
0"
b0000000000000000 !
#485
1"
b1000000000000000 !
#490
0"
b0000000000000000 !
#495
1"
b1000000000000000 !
#500
0"
b0000000000000000 !
#505
1"
b1000000000000000 !
#510
0"
b0000000000000000 !
#515
1"
b1000000000000000 !
#520
0"
b0000000000000000 !
#525
1"
b1000000000000000 !
#530
0"
b0000000000000000 !
#535
1"
b1000000000000000 !
#540
0"
b0000000000000000 !
#545
1"
b1000000000000000 !
#550
0"
b0000000000000000 !
#555
1"
b1000000000000000 !
#560
0"
b0000000000000000 !
#565
1"
b1000000000000000 !
#570
0"
b0000000000000000 !
#575
1"
b1000000000000000 !
#580
0"
b0000000000000000 !
#585
1"
b1000000000000000 !
#590
0"
b0000000000000000 !
#595
1"
b1000000000000000 !
#600
0"
b0000000000000000 !
#605
1"
b1000000000000000 !
#610
0"
b0000000000000000 !
#615
1"
b1000000000000000 !
#620
0"
b0000000000000000 !
#625
1"
b1000000000000000 !
#630
0"
b0000000000000000 !
#635
1"
b1000000000000000 !
#640
0"
b0000000000000000 !
#645
1"
b1000000000000000 !
#650
0"
b0000000000000000 !
#655
1"
b1000000000000000 !
#660
0"
b0000000000000000 !
#665
1"
b1000000000000000 !
#670
0"
b0000000000000000 !
#675
1"
b1000000000000000 !
#680
0"
b0000000000000000 !
#685
1"
b1000000000000000 !
#690
0"
b0000000000000000 !
#695
1"
b1000000000000000 !
#700
0"
b0000000000000000 !
#705
1"
b1000000000000000 !
#710
0"
b0000000000000000 !
#715
1"
b1000000000000000 !
#720
0"
b0000000000000000 !
#725
1"
b1000000000000000 !
#730
0"
b0000000000000000 !
#735
1"
b1000000000000000 !
#740
0"
b0000000000000000 !
#745
1"
b1000000000000000 !
#750
0"
b0000000000000000 !
#755
1"
b1000000000000000 !
#760
0"
b0000000000000000 !
#765
1"
b1000000000000000 !
#770
0"
b0000000000000000 !
#775
1"
b1000000000000000 !
#780
0"
b0000000000000000 !
#785
1"
b1000000000000000 !
#790
0"
b0000000000000000 !
#795
1"
b1000000000000000 !
#800
0"
b0000000000000000 !
#805
1"
b1000000000000000 !
#810
0"
b0000000000000000 !
#815
1"
b1000000000000000 !
#820
0"
b0000000000000000 !
#825
1"
b1000000000000000 !
#830
0"
b0000000000000000 !
#835
1"
b1000000000000000 !
#840
0"
b0000000000000000 !
#845
1"
b1000000000000000 !
#850
0"
b0000000000000000 !
#855
1"
b1000000000000000 !
#860
0"
b0000000000000000 !
#865
1"
b1000000000000000 !
#870
0"
b0000000000000000 !
#875
1"
b1000000000000000 !
#880
0"
b0000000000000000 !
#885
1"
b1000000000000000 !
#890
0"
b0000000000000000 !
#895
1"
b1000000000000000 !
#900
0"
b0000000000000000 !
#905
1"
b1000000000000000 !
#910
0"
b0000000000000000 !
#915
1"
b1000000000000000 !
#920
0"
b0000000000000000 !
#925
1"
b1000000000000000 !
#930
0"
b0000000000000000 !
#935
1"
b1000000000000000 !
#940
0"
b0000000000000000 !
#945
1"
b1000000000000000 !
#950
0"
b0000000000000000 !
#955
1"
b1000000000000000 !
#960
0"
b0000000000000000 !
#965
1"
b1000000000000000 !
#970
0"
b0000000000000000 !
#975
1"
b1000000000000000 !
#980
0"
b0000000000000000 !
#985
1"
b1000000000000000 !
#990
0"
b0000000000000000 !
#995
1"
b1000000000000000 !
#1000
0"
b0000000000000000 !
