Counter-12bit/test_counter.vcd
$date
    Sun Feb  7 19:02:03 2021
$end
$version
    MyHDL 0.11
$end
$timescale
    1ns
$end

$scope module test_counter $end
$var reg 12 ! count $end
$var reg 1 " clk $end
$var reg 1 # en $end
$scope module inst $end
$var reg 1 " clk $end
$var reg 12 ! count $end
$var reg 1 # enable $end
$upscope $end
$upscope $end

$enddefinitions $end
$dumpvars
b000000000000 !
0"
0#
$end
#1
1"
#2
0"
#3
1"
1#
b000000000001 !
#4
0"
#5
1"
b000000000010 !
#6
0"
0#
#7
1"
#8
0"
#9
1"
1#
b000000000011 !
#10
0"
#11
1"
b000000000100 !
#12
0"
0#
#13
1"
#14
0"
#15
1"
1#
b000000000101 !
#16
0"
#17
1"
b000000000110 !
#18
0"
0#
#19
1"
#20
0"
#21
1"
1#
b000000000111 !
#22
0"
#23
1"
b000000001000 !
#24
0"
0#
#25
1"
#26
0"
#27
1"
1#
b000000001001 !
#28
0"
#29
1"
b000000001010 !
#30
0"
0#
#31
1"
#32
0"
#33
1"
1#
b000000001011 !
#34
0"
#35
1"
b000000001100 !
#36
0"
0#
#37
1"
#38
0"
#39
1"
1#
b000000000000 !
#40
0"
#41
1"
b000000000001 !
#42
0"
0#
#43
1"
#44
0"
#45
1"
1#
b000000000010 !
#46
0"
#47
1"
b000000000011 !
#48
0"
0#
#49
1"
#50
0"
#51
1"
1#
b000000000100 !
#52
0"
#53
1"
b000000000101 !
#54
0"
0#
#55
1"
#56
0"
#57
1"
1#
b000000000110 !
#58
0"
#59
1"
b000000000111 !
#60
0"
0#
#61
1"
#62
0"
#63
1"
1#
b000000001000 !
#64
0"
#65
1"
b000000001001 !
#66
0"
0#
#67
1"
#68
0"
#69
1"
1#
b000000001010 !
#70
0"
#71
1"
b000000001011 !
#72
0"
0#
#73
1"
#74
0"
#75
1"
1#
b000000001100 !
#76
0"
#77
1"
b000000000000 !
#78
0"
0#
#79
1"
#80
0"
#81
1"
1#
b000000000001 !
#82
0"
#83
1"
b000000000010 !
#84
0"
0#
#85
1"
#86
0"
#87
1"
1#
b000000000011 !
#88
0"
#89
1"
b000000000100 !
#90
0"
0#
#91
1"
#92
0"
#93
1"
1#
b000000000101 !
#94
0"
#95
1"
b000000000110 !
#96
0"
0#
#97
1"
#98
0"
#99
1"
1#
b000000000111 !
#100
0"
#101
1"
b000000001000 !
#102
0"
0#
#103
1"
#104
0"
#105
1"
1#
b000000001001 !
#106
0"
#107
1"
b000000001010 !
#108
0"
0#
#109
1"
#110
0"
#111
1"
1#
b000000001011 !
#112
0"
#113
1"
b000000001100 !
#114
0"
0#
#115
1"
#116
0"
#117
1"
1#
b000000000000 !
#118
0"
#119
1"
b000000000001 !
#120
0"
0#
#121
1"
#122
0"
#123
1"
1#
b000000000010 !
#124
0"
#125
1"
b000000000011 !
#126
0"
0#
#127
1"
#128
0"
#129
1"
1#
b000000000100 !
#130
0"
#131
1"
b000000000101 !
#132
0"
0#
#133
1"
#134
0"
#135
1"
1#
b000000000110 !
#136
0"
#137
1"
b000000000111 !
#138
0"
0#
#139
1"
#140
0"
#141
1"
1#
b000000001000 !
#142
0"
#143
1"
b000000001001 !
#144
0"
0#
#145
1"
#146
0"
#147
1"
1#
b000000001010 !
#148
0"
#149
1"
b000000001011 !
#150
0"
0#
#151
1"
#152
0"
#153
1"
1#
b000000001100 !
#154
0"
#155
1"
b000000000000 !
#156
0"
0#
#157
1"
#158
0"
#159
1"
1#
b000000000001 !
#160
0"
#161
1"
b000000000010 !
#162
0"
0#
#163
1"
#164
0"
#165
1"
1#
b000000000011 !
#166
0"
#167
1"
b000000000100 !
#168
0"
0#
#169
1"
#170
0"
#171
1"
1#
b000000000101 !
#172
0"
#173
1"
b000000000110 !
#174
0"
0#
#175
1"
#176
0"
#177
1"
1#
b000000000111 !
#178
0"
#179
1"
b000000001000 !
#180
0"
0#
#181
1"
#182
0"
#183
1"
1#
b000000001001 !
#184
0"
#185
1"
b000000001010 !
#186
0"
0#
#187
1"
#188
0"
#189
1"
1#
b000000001011 !
#190
0"
#191
1"
b000000001100 !
#192
0"
0#
#193
1"
#194
0"
#195
1"
1#
b000000000000 !
#196
0"
#197
1"
b000000000001 !
#198
0"
0#
#199
1"
#200
0"
#201
1"
1#
b000000000010 !
#202
0"
#203
1"
b000000000011 !
#204
0"
0#
#205
1"
#206
0"
#207
1"
1#
b000000000100 !
#208
0"
#209
1"
b000000000101 !
#210
0"
0#
#211
1"
#212
0"
#213
1"
1#
b000000000110 !
#214
0"
#215
1"
b000000000111 !
#216
0"
0#
#217
1"
#218
0"
#219
1"
1#
b000000001000 !
#220
0"
#221
1"
b000000001001 !
#222
0"
0#
#223
1"
#224
0"
#225
1"
1#
b000000001010 !
#226
0"
#227
1"
b000000001011 !
#228
0"
0#
#229
1"
#230
0"
#231
1"
1#
b000000001100 !
#232
0"
#233
1"
b000000000000 !
#234
0"
0#
#235
1"
#236
0"
#237
1"
1#
b000000000001 !
#238
0"
#239
1"
b000000000010 !
#240
0"
0#
#241
1"
#242
0"
#243
1"
1#
b000000000011 !
#244
0"
#245
1"
b000000000100 !
#246
0"
0#
#247
1"
#248
0"
#249
1"
1#
b000000000101 !
#250
0"
#251
1"
b000000000110 !
#252
0"
0#
#253
1"
#254
0"
#255
1"
1#
b000000000111 !
#256
0"
#257
1"
b000000001000 !
#258
0"
0#
#259
1"
#260
0"
#261
1"
1#
b000000001001 !
#262
0"
#263
1"
b000000001010 !
#264
0"
0#
#265
1"
#266
0"
#267
1"
1#
b000000001011 !
#268
0"
#269
1"
b000000001100 !
#270
0"
0#
#271
1"
#272
0"
#273
1"
1#
b000000000000 !
#274
0"
#275
1"
b000000000001 !
#276
0"
0#
#277
1"
#278
0"
#279
1"
1#
b000000000010 !
#280
0"
#281
1"
b000000000011 !
#282
0"
0#
#283
1"
#284
0"
#285
1"
1#
b000000000100 !
#286
0"
#287
1"
b000000000101 !
#288
0"
0#
#289
1"
#290
0"
#291
1"
1#
b000000000110 !
#292
0"
#293
1"
b000000000111 !
#294
0"
0#
#295
1"
#296
0"
#297
1"
1#
b000000001000 !
#298
0"
#299
1"
b000000001001 !
#300
0"
0#
#301
1"
#302
0"
#303
1"
1#
b000000001010 !
#304
0"
#305
1"
b000000001011 !
#306
0"
0#
#307
1"
#308
0"
#309
1"
1#
b000000001100 !
#310
0"
#311
1"
b000000000000 !
#312
0"
0#
#313
1"
#314
0"
#315
1"
1#
b000000000001 !
#316
0"
#317
1"
b000000000010 !
#318
0"
0#
#319
1"
#320
0"
#321
1"
1#
b000000000011 !
#322
0"
#323
1"
b000000000100 !
#324
0"
0#
#325
1"
#326
0"
#327
1"
1#
b000000000101 !
#328
0"
#329
1"
b000000000110 !
#330
0"
0#
#331
1"
#332
0"
#333
1"
1#
b000000000111 !
#334
0"
#335
1"
b000000001000 !
#336
0"
0#
#337
1"
#338
0"
#339
1"
1#
b000000001001 !
#340
0"
#341
1"
b000000001010 !
#342
0"
0#
#343
1"
#344
0"
#345
1"
1#
b000000001011 !
#346
0"
#347
1"
b000000001100 !
#348
0"
0#
#349
1"
#350
0"
#351
1"
1#
b000000000000 !
#352
0"
#353
1"
b000000000001 !
#354
0"
0#
#355
1"
#356
0"
#357
1"
1#
b000000000010 !
#358
0"
#359
1"
b000000000011 !
#360
0"
0#
#361
1"
#362
0"
#363
1"
1#
b000000000100 !
#364
0"
#365
1"
b000000000101 !
#366
0"
0#
#367
1"
#368
0"
#369
1"
1#
b000000000110 !
#370
0"
#371
1"
b000000000111 !
#372
0"
0#
#373
1"
#374
0"
#375
1"
1#
b000000001000 !
#376
0"
#377
1"
b000000001001 !
#378
0"
0#
#379
1"
#380
0"
#381
1"
1#
b000000001010 !
#382
0"
#383
1"
b000000001011 !
#384
0"
0#
#385
1"
#386
0"
#387
1"
1#
b000000001100 !
#388
0"
#389
1"
b000000000000 !
#390
0"
0#
#391
1"
#392
0"
#393
1"
1#
b000000000001 !
#394
0"
#395
1"
b000000000010 !
#396
0"
0#
#397
1"
#398
0"
#399
1"
1#
b000000000011 !
#400
0"
#401
1"
b000000000100 !
#402
0"
0#
#403
1"
#404
0"
#405
1"
1#
b000000000101 !
#406
0"
#407
1"
b000000000110 !
#408
0"
0#
#409
1"
#410
0"
#411
1"
1#
b000000000111 !
#412
0"
#413
1"
b000000001000 !
#414
0"
0#
#415
1"
#416
0"
#417
1"
1#
b000000001001 !
#418
0"
#419
1"
b000000001010 !
#420
0"
0#
#421
1"
#422
0"
#423
1"
1#
b000000001011 !
#424
0"
#425
1"
b000000001100 !
#426
0"
0#
#427
1"
#428
0"
#429
1"
1#
b000000000000 !
#430
0"
#431
1"
b000000000001 !
#432
0"
0#
#433
1"
#434
0"
#435
1"
1#
b000000000010 !
#436
0"
#437
1"
b000000000011 !
#438
0"
0#
#439
1"
#440
0"
#441
1"
1#
b000000000100 !
#442
0"
#443
1"
b000000000101 !
#444
0"
0#
#445
1"
#446
0"
#447
1"
1#
b000000000110 !
#448
0"
#449
1"
b000000000111 !
#450
0"
0#
#451
1"
#452
0"
#453
1"
1#
b000000001000 !
#454
0"
#455
1"
b000000001001 !
#456
0"
0#
#457
1"
#458
0"
#459
1"
1#
b000000001010 !
#460
0"
#461
1"
b000000001011 !
#462
0"
0#
#463
1"
#464
0"
#465
1"
1#
b000000001100 !
#466
0"
#467
1"
b000000000000 !
#468
0"
0#
#469
1"
#470
0"
#471
1"
1#
b000000000001 !
#472
0"
#473
1"
b000000000010 !
#474
0"
0#
#475
1"
#476
0"
#477
1"
1#
b000000000011 !
#478
0"
#479
1"
b000000000100 !
#480
0"
0#
#481
1"
#482
0"
#483
1"
1#
b000000000101 !
#484
0"
#485
1"
b000000000110 !
#486
0"
0#
#487
1"
#488
0"
#489
1"
1#
b000000000111 !
#490
0"
#491
1"
b000000001000 !
#492
0"
0#
#493
1"
#494
0"
#495
1"
1#
b000000001001 !
#496
0"
#497
1"
b000000001010 !
#498
0"
0#
#499
1"
#500
0"
#501
1"
1#
b000000001011 !
#502
0"
#503
1"
b000000001100 !
#504
0"
0#
#505
1"
#506
0"
#507
1"
1#
b000000000000 !
#508
0"
#509
1"
b000000000001 !
#510
0"
0#
#511
1"
#512
0"
#513
1"
1#
b000000000010 !
#514
0"
#515
1"
b000000000011 !
#516
0"
0#
#517
1"
#518
0"
#519
1"
1#
b000000000100 !
#520
0"
#521
1"
b000000000101 !
#522
0"
0#
#523
1"
#524
0"
#525
1"
1#
b000000000110 !
#526
0"
#527
1"
b000000000111 !
#528
0"
0#
#529
1"
#530
0"
#531
1"
1#
b000000001000 !
#532
0"
#533
1"
b000000001001 !
#534
0"
0#
#535
1"
#536
0"
#537
1"
1#
b000000001010 !
#538
0"
#539
1"
b000000001011 !
#540
0"
0#
#541
1"
#542
0"
#543
1"
1#
b000000001100 !
#544
0"
#545
1"
b000000000000 !
#546
0"
0#
#547
1"
#548
0"
#549
1"
1#
b000000000001 !
#550
0"
#551
1"
b000000000010 !
#552
0"
0#
#553
1"
#554
0"
#555
1"
1#
b000000000011 !
#556
0"
#557
1"
b000000000100 !
#558
0"
0#
#559
1"
#560
0"
#561
1"
1#
b000000000101 !
#562
0"
#563
1"
b000000000110 !
#564
0"
0#
#565
1"
#566
0"
#567
1"
1#
b000000000111 !
#568
0"
#569
1"
b000000001000 !
#570
0"
0#
#571
1"
#572
0"
#573
1"
1#
b000000001001 !
#574
0"
#575
1"
b000000001010 !
#576
0"
0#
#577
1"
#578
0"
#579
1"
1#
b000000001011 !
#580
0"
#581
1"
b000000001100 !
#582
0"
0#
#583
1"
#584
0"
#585
1"
1#
b000000000000 !
#586
0"
#587
1"
b000000000001 !
#588
0"
0#
#589
1"
#590
0"
#591
1"
1#
b000000000010 !
#592
0"
#593
1"
b000000000011 !
#594
0"
0#
#595
1"
#596
0"
#597
1"
1#
b000000000100 !
#598
0"
#599
1"
b000000000101 !
#600
0"
0#
#601
1"
#602
0"
#603
1"
1#
b000000000110 !
#604
0"
#605
1"
b000000000111 !
#606
0"
0#
#607
1"
#608
0"
#609
1"
1#
b000000001000 !
#610
0"
#611
1"
b000000001001 !
#612
0"
0#
#613
1"
#614
0"
#615
1"
1#
b000000001010 !
#616
0"
#617
1"
b000000001011 !
#618
0"
0#
#619
1"
#620
0"
#621
1"
1#
b000000001100 !
#622
0"
#623
1"
b000000000000 !
#624
0"
0#
#625
1"
#626
0"
#627
1"
1#
b000000000001 !
#628
0"
#629
1"
b000000000010 !
#630
0"
0#
#631
1"
#632
0"
#633
1"
1#
b000000000011 !
#634
0"
#635
1"
b000000000100 !
#636
0"
0#
#637
1"
#638
0"
#639
1"
1#
b000000000101 !
#640
0"
#641
1"
b000000000110 !
#642
0"
0#
#643
1"
#644
0"
#645
1"
1#
b000000000111 !
#646
0"
#647
1"
b000000001000 !
#648
0"
0#
#649
1"
#650
0"
#651
1"
1#
b000000001001 !
#652
0"
#653
1"
b000000001010 !
#654
0"
0#
#655
1"
#656
0"
#657
1"
1#
b000000001011 !
#658
0"
#659
1"
b000000001100 !
#660
0"
0#
#661
1"
#662
0"
#663
1"
1#
b000000000000 !
#664
0"
#665
1"
b000000000001 !
#666
0"
0#
#667
1"
#668
0"
#669
1"
1#
b000000000010 !
#670
0"
#671
1"
b000000000011 !
#672
0"
0#
#673
1"
#674
0"
#675
1"
1#
b000000000100 !
#676
0"
#677
1"
b000000000101 !
#678
0"
0#
#679
1"
#680
0"
#681
1"
1#
b000000000110 !
#682
0"
#683
1"
b000000000111 !
#684
0"
0#
#685
1"
#686
0"
#687
1"
1#
b000000001000 !
#688
0"
#689
1"
b000000001001 !
#690
0"
0#
#691
1"
#692
0"
#693
1"
1#
b000000001010 !
#694
0"
#695
1"
b000000001011 !
#696
0"
0#
#697
1"
#698
0"
#699
1"
1#
b000000001100 !
#700
0"
#701
1"
b000000000000 !
#702
0"
0#
#703
1"
#704
0"
#705
1"
1#
b000000000001 !
#706
0"
#707
1"
b000000000010 !
#708
0"
0#
#709
1"
#710
0"
#711
1"
1#
b000000000011 !
#712
0"
#713
1"
b000000000100 !
#714
0"
0#
#715
1"
#716
0"
#717
1"
1#
b000000000101 !
#718
0"
#719
1"
b000000000110 !
#720
0"
0#
#721
1"
#722
0"
#723
1"
1#
b000000000111 !
#724
0"
#725
1"
b000000001000 !
#726
0"
0#
#727
1"
#728
0"
#729
1"
1#
b000000001001 !
#730
0"
#731
1"
b000000001010 !
#732
0"
0#
#733
1"
#734
0"
#735
1"
1#
b000000001011 !
#736
0"
#737
1"
b000000001100 !
#738
0"
0#
#739
1"
#740
0"
#741
1"
1#
b000000000000 !
#742
0"
#743
1"
b000000000001 !
#744
0"
0#
#745
1"
#746
0"
#747
1"
1#
b000000000010 !
#748
0"
#749
1"
b000000000011 !
#750
0"
0#
#751
1"
#752
0"
#753
1"
1#
b000000000100 !
#754
0"
#755
1"
b000000000101 !
#756
0"
0#
#757
1"
#758
0"
#759
1"
1#
b000000000110 !
#760
0"
#761
1"
b000000000111 !
#762
0"
0#
#763
1"
#764
0"
#765
1"
1#
b000000001000 !
#766
0"
#767
1"
b000000001001 !
#768
0"
0#
#769
1"
#770
0"
#771
1"
1#
b000000001010 !
#772
0"
#773
1"
b000000001011 !
#774
0"
0#
#775
1"
#776
0"
#777
1"
1#
b000000001100 !
#778
0"
#779
1"
b000000000000 !
#780
0"
0#
#781
1"
#782
0"
#783
1"
1#
b000000000001 !
#784
0"
#785
1"
b000000000010 !
#786
0"
0#
#787
1"
#788
0"
#789
1"
1#
b000000000011 !
#790
0"
#791
1"
b000000000100 !
#792
0"
0#
#793
1"
#794
0"
#795
1"
1#
b000000000101 !
#796
0"
#797
1"
b000000000110 !
#798
0"
0#
#799
1"
#800
0"
#801
1"
1#
b000000000111 !
#802
0"
#803
1"
b000000001000 !
#804
0"
0#
#805
1"
#806
0"
#807
1"
1#
b000000001001 !
#808
0"
#809
1"
b000000001010 !
#810
0"
0#
#811
1"
#812
0"
#813
1"
1#
b000000001011 !
#814
0"
#815
1"
b000000001100 !
#816
0"
0#
#817
1"
#818
0"
#819
1"
1#
b000000000000 !
#820
0"
#821
1"
b000000000001 !
#822
0"
0#
#823
1"
#824
0"
#825
1"
1#
b000000000010 !
#826
0"
#827
1"
b000000000011 !
#828
0"
0#
#829
1"
#830
0"
#831
1"
1#
b000000000100 !
#832
0"
#833
1"
b000000000101 !
#834
0"
0#
#835
1"
#836
0"
#837
1"
1#
b000000000110 !
#838
0"
#839
1"
b000000000111 !
#840
0"
0#
#841
1"
#842
0"
#843
1"
1#
b000000001000 !
#844
0"
#845
1"
b000000001001 !
#846
0"
0#
#847
1"
#848
0"
#849
1"
1#
b000000001010 !
#850
0"
#851
1"
b000000001011 !
#852
0"
0#
#853
1"
#854
0"
#855
1"
1#
b000000001100 !
#856
0"
#857
1"
b000000000000 !
#858
0"
0#
#859
1"
#860
0"
#861
1"
1#
b000000000001 !
#862
0"
#863
1"
b000000000010 !
#864
0"
0#
#865
1"
#866
0"
#867
1"
1#
b000000000011 !
#868
0"
#869
1"
b000000000100 !
#870
0"
0#
#871
1"
#872
0"
#873
1"
1#
b000000000101 !
#874
0"
#875
1"
b000000000110 !
#876
0"
0#
#877
1"
#878
0"
#879
1"
1#
b000000000111 !
#880
0"
#881
1"
b000000001000 !
#882
0"
0#
#883
1"
#884
0"
#885
1"
1#
b000000001001 !
#886
0"
#887
1"
b000000001010 !
#888
0"
0#
#889
1"
#890
0"
#891
1"
1#
b000000001011 !
#892
0"
#893
1"
b000000001100 !
#894
0"
0#
#895
1"
#896
0"
#897
1"
1#
b000000000000 !
#898
0"
#899
1"
b000000000001 !
#900
0"
0#
#901
1"
#902
0"
#903
1"
1#
b000000000010 !
#904
0"
#905
1"
b000000000011 !
#906
0"
0#
#907
1"
#908
0"
#909
1"
1#
b000000000100 !
#910
0"
#911
1"
b000000000101 !
#912
0"
0#
#913
1"
#914
0"
#915
1"
1#
b000000000110 !
#916
0"
#917
1"
b000000000111 !
#918
0"
0#
#919
1"
#920
0"
#921
1"
1#
b000000001000 !
#922
0"
#923
1"
b000000001001 !
#924
0"
0#
#925
1"
#926
0"
#927
1"
1#
b000000001010 !
#928
0"
#929
1"
b000000001011 !
#930
0"
0#
#931
1"
#932
0"
#933
1"
1#
b000000001100 !
#934
0"
#935
1"
b000000000000 !
#936
0"
0#
#937
1"
#938
0"
#939
1"
1#
b000000000001 !
#940
0"
#941
1"
b000000000010 !
#942
0"
0#
#943
1"
#944
0"
#945
1"
1#
b000000000011 !
#946
0"
#947
1"
b000000000100 !
#948
0"
0#
#949
1"
#950
0"
#951
1"
1#
b000000000101 !
#952
0"
#953
1"
b000000000110 !
#954
0"
0#
#955
1"
#956
0"
#957
1"
1#
b000000000111 !
#958
0"
#959
1"
b000000001000 !
#960
0"
0#
#961
1"
#962
0"
#963
1"
1#
b000000001001 !
#964
0"
#965
1"
b000000001010 !
#966
0"
0#
#967
1"
#968
0"
#969
1"
1#
b000000001011 !
#970
0"
#971
1"
b000000001100 !
#972
0"
0#
#973
1"
#974
0"
#975
1"
1#
b000000000000 !
#976
0"
#977
1"
b000000000001 !
#978
0"
0#
#979
1"
#980
0"
#981
1"
1#
b000000000010 !
#982
0"
#983
1"
b000000000011 !
#984
0"
0#
#985
1"
#986
0"
#987
1"
1#
b000000000100 !
#988
0"
#989
1"
b000000000101 !
#990
0"
0#
#991
1"
#992
0"
#993
1"
1#
b000000000110 !
#994
0"
#995
1"
b000000000111 !
#996
0"
0#
#997
1"
#998
0"
#999
1"
1#
b000000001000 !
#1000
0"
#1001
1"
b000000001001 !
#1002
0"
0#
#1003
1"
#1004
0"
#1005
1"
1#
b000000001010 !
#1006
0"
#1007
1"
b000000001011 !
#1008
0"
0#
#1009
1"
#1010
0"
#1011
1"
1#
b000000001100 !
#1012
0"
#1013
1"
b000000000000 !
#1014
0"
0#
#1015
1"
#1016
0"
#1017
1"
1#
b000000000001 !
#1018
0"
#1019
1"
b000000000010 !
#1020
0"
0#
#1021
1"
#1022
0"
#1023
1"
1#
b000000000011 !
#1024
0"
#1025
1"
b000000000100 !
#1026
0"
0#
#1027
1"
#1028
0"
#1029
1"
1#
b000000000101 !
#1030
0"
#1031
1"
b000000000110 !
#1032
0"
0#
#1033
1"
#1034
0"
#1035
1"
1#
b000000000111 !
#1036
0"
#1037
1"
b000000001000 !
#1038
0"
0#
#1039
1"
#1040
0"
#1041
1"
1#
b000000001001 !
#1042
0"
#1043
1"
b000000001010 !
#1044
0"
0#
#1045
1"
#1046
0"
#1047
1"
1#
b000000001011 !
#1048
0"
#1049
1"
b000000001100 !
#1050
0"
0#
#1051
1"
#1052
0"
#1053
1"
1#
b000000000000 !
#1054
0"
#1055
1"
b000000000001 !
#1056
0"
0#
#1057
1"
#1058
0"
#1059
1"
1#
b000000000010 !
#1060
0"
#1061
1"
b000000000011 !
#1062
0"
0#
#1063
1"
#1064
0"
#1065
1"
1#
b000000000100 !
#1066
0"
#1067
1"
b000000000101 !
#1068
0"
0#
#1069
1"
#1070
0"
#1071
1"
1#
b000000000110 !
#1072
0"
#1073
1"
b000000000111 !
#1074
0"
0#
#1075
1"
#1076
0"
#1077
1"
1#
b000000001000 !
#1078
0"
#1079
1"
b000000001001 !
#1080
0"
0#
#1081
1"
#1082
0"
#1083
1"
1#
b000000001010 !
#1084
0"
#1085
1"
b000000001011 !
#1086
0"
0#
#1087
1"
#1088
0"
#1089
1"
1#
b000000001100 !
#1090
0"
#1091
1"
b000000000000 !
#1092
0"
0#
#1093
1"
#1094
0"
#1095
1"
1#
b000000000001 !
#1096
0"
#1097
1"
b000000000010 !
#1098
0"
0#
#1099
1"
#1100
0"
#1101
1"
1#
b000000000011 !
#1102
0"
#1103
1"
b000000000100 !
#1104
0"
0#
#1105
1"
#1106
0"
#1107
1"
1#
b000000000101 !
#1108
0"
#1109
1"
b000000000110 !
#1110
0"
0#
#1111
1"
#1112
0"
#1113
1"
1#
b000000000111 !
#1114
0"
#1115
1"
b000000001000 !
#1116
0"
0#
#1117
1"
#1118
0"
#1119
1"
1#
b000000001001 !
#1120
0"
#1121
1"
b000000001010 !
#1122
0"
0#
#1123
1"
#1124
0"
#1125
1"
1#
b000000001011 !
#1126
0"
#1127
1"
b000000001100 !
#1128
0"
0#
#1129
1"
#1130
0"
#1131
1"
1#
b000000000000 !
#1132
0"
#1133
1"
b000000000001 !
#1134
0"
0#
#1135
1"
#1136
0"
#1137
1"
1#
b000000000010 !
#1138
0"
#1139
1"
b000000000011 !
#1140
0"
0#
#1141
1"
#1142
0"
#1143
1"
1#
b000000000100 !
#1144
0"
#1145
1"
b000000000101 !
#1146
0"
0#
#1147
1"
#1148
0"
#1149
1"
1#
b000000000110 !
#1150
0"
#1151
1"
b000000000111 !
#1152
0"
0#
#1153
1"
#1154
0"
#1155
1"
1#
b000000001000 !
#1156
0"
#1157
1"
b000000001001 !
#1158
0"
0#
#1159
1"
#1160
0"
#1161
1"
1#
b000000001010 !
#1162
0"
#1163
1"
b000000001011 !
#1164
0"
0#
#1165
1"
#1166
0"
#1167
1"
1#
b000000001100 !
#1168
0"
#1169
1"
b000000000000 !
#1170
0"
0#
#1171
1"
#1172
0"
#1173
1"
1#
b000000000001 !
#1174
0"
#1175
1"
b000000000010 !
#1176
0"
0#
#1177
1"
#1178
0"
#1179
1"
1#
b000000000011 !
#1180
0"
#1181
1"
b000000000100 !
#1182
0"
0#
#1183
1"
#1184
0"
#1185
1"
1#
b000000000101 !
#1186
0"
#1187
1"
b000000000110 !
#1188
0"
0#
#1189
1"
#1190
0"
#1191
1"
1#
b000000000111 !
#1192
0"
#1193
1"
b000000001000 !
#1194
0"
0#
#1195
1"
#1196
0"
#1197
1"
1#
b000000001001 !
#1198
0"
#1199
1"
b000000001010 !
#1200
0"
0#
#1201
1"
#1202
0"
#1203
1"
1#
b000000001011 !
#1204
0"
#1205
1"
b000000001100 !
#1206
0"
0#
#1207
1"
#1208
0"
#1209
1"
1#
b000000000000 !
#1210
0"
#1211
1"
b000000000001 !
#1212
0"
0#
#1213
1"
#1214
0"
#1215
1"
1#
b000000000010 !
#1216
0"
#1217
1"
b000000000011 !
#1218
0"
0#
#1219
1"
#1220
0"
#1221
1"
1#
b000000000100 !
#1222
0"
#1223
1"
b000000000101 !
#1224
0"
0#
#1225
1"
#1226
0"
#1227
1"
1#
b000000000110 !
#1228
0"
#1229
1"
b000000000111 !
#1230
0"
0#
#1231
1"
#1232
0"
#1233
1"
1#
b000000001000 !
#1234
0"
#1235
1"
b000000001001 !
#1236
0"
0#
#1237
1"
#1238
0"
#1239
1"
1#
b000000001010 !
#1240
0"
#1241
1"
b000000001011 !
#1242
0"
0#
#1243
1"
#1244
0"
#1245
1"
1#
b000000001100 !
#1246
0"
#1247
1"
b000000000000 !
#1248
0"
0#
#1249
1"
#1250
0"
#1251
1"
1#
b000000000001 !
#1252
0"
#1253
1"
b000000000010 !
#1254
0"
0#
#1255
1"
#1256
0"
#1257
1"
1#
b000000000011 !
#1258
0"
#1259
1"
b000000000100 !
#1260
0"
0#
#1261
1"
#1262
0"
#1263
1"
1#
b000000000101 !
#1264
0"
#1265
1"
b000000000110 !
#1266
0"
0#
#1267
1"
#1268
0"
#1269
1"
1#
b000000000111 !
#1270
0"
#1271
1"
b000000001000 !
#1272
0"
0#
#1273
1"
#1274
0"
#1275
1"
1#
b000000001001 !
#1276
0"
#1277
1"
b000000001010 !
#1278
0"
0#
#1279
1"
#1280
0"
#1281
1"
1#
b000000001011 !
#1282
0"
#1283
1"
b000000001100 !
#1284
0"
0#
#1285
1"
#1286
0"
#1287
1"
1#
b000000000000 !
#1288
0"
#1289
1"
b000000000001 !
#1290
0"
0#
#1291
1"
#1292
0"
#1293
1"
1#
b000000000010 !
#1294
0"
#1295
1"
b000000000011 !
#1296
0"
0#
#1297
1"
#1298
0"
#1299
1"
1#
b000000000100 !
#1300
0"
#1301
1"
b000000000101 !
#1302
0"
0#
#1303
1"
#1304
0"
#1305
1"
1#
b000000000110 !
#1306
0"
#1307
1"
b000000000111 !
#1308
0"
0#
#1309
1"
#1310
0"
#1311
1"
1#
b000000001000 !
#1312
0"
#1313
1"
b000000001001 !
#1314
0"
0#
#1315
1"
#1316
0"
#1317
1"
1#
b000000001010 !
#1318
0"
#1319
1"
b000000001011 !
#1320
0"
0#
#1321
1"
#1322
0"
#1323
1"
1#
b000000001100 !
#1324
0"
#1325
1"
b000000000000 !
#1326
0"
0#
#1327
1"
#1328
0"
#1329
1"
1#
b000000000001 !
#1330
0"
#1331
1"
b000000000010 !
#1332
0"
0#
#1333
1"
#1334
0"
#1335
1"
1#
b000000000011 !
#1336
0"
#1337
1"
b000000000100 !
#1338
0"
0#
#1339
1"
#1340
0"
#1341
1"
1#
b000000000101 !
#1342
0"
#1343
1"
b000000000110 !
#1344
0"
0#
#1345
1"
#1346
0"
#1347
1"
1#
b000000000111 !
#1348
0"
#1349
1"
b000000001000 !
#1350
0"
0#
#1351
1"
#1352
0"
#1353
1"
1#
b000000001001 !
#1354
0"
#1355
1"
b000000001010 !
#1356
0"
0#
#1357
1"
#1358
0"
#1359
1"
1#
b000000001011 !
#1360
0"
#1361
1"
b000000001100 !
#1362
0"
0#
#1363
1"
#1364
0"
#1365
1"
1#
b000000000000 !
#1366
0"
#1367
1"
b000000000001 !
#1368
0"
0#
#1369
1"
#1370
0"
#1371
1"
1#
b000000000010 !
#1372
0"
#1373
1"
b000000000011 !
#1374
0"
0#
#1375
1"
#1376
0"
#1377
1"
1#
b000000000100 !
#1378
0"
#1379
1"
b000000000101 !
#1380
0"
0#
#1381
1"
#1382
0"
#1383
1"
1#
b000000000110 !
#1384
0"
#1385
1"
b000000000111 !
#1386
0"
0#
#1387
1"
#1388
0"
#1389
1"
1#
b000000001000 !
#1390
0"
#1391
1"
b000000001001 !
#1392
0"
0#
#1393
1"
#1394
0"
#1395
1"
1#
b000000001010 !
#1396
0"
#1397
1"
b000000001011 !
#1398
0"
0#
#1399
1"
#1400
0"
#1401
1"
1#
b000000001100 !
#1402
0"
#1403
1"
b000000000000 !
#1404
0"
0#
#1405
1"
#1406
0"
#1407
1"
1#
b000000000001 !
#1408
0"
#1409
1"
b000000000010 !
#1410
0"
0#
#1411
1"
#1412
0"
#1413
1"
1#
b000000000011 !
#1414
0"
#1415
1"
b000000000100 !
#1416
0"
0#
#1417
1"
#1418
0"
#1419
1"
1#
b000000000101 !
#1420
0"
#1421
1"
b000000000110 !
#1422
0"
0#
#1423
1"
#1424
0"
#1425
1"
1#
b000000000111 !
#1426
0"
#1427
1"
b000000001000 !
#1428
0"
0#
#1429
1"
#1430
0"
#1431
1"
1#
b000000001001 !
#1432
0"
#1433
1"
b000000001010 !
#1434
0"
0#
#1435
1"
#1436
0"
#1437
1"
1#
b000000001011 !
#1438
0"
#1439
1"
b000000001100 !
#1440
0"
0#
#1441
1"
#1442
0"
#1443
1"
1#
b000000000000 !
#1444
0"
#1445
1"
b000000000001 !
#1446
0"
0#
#1447
1"
#1448
0"
#1449
1"
1#
b000000000010 !
#1450
0"
#1451
1"
b000000000011 !
#1452
0"
0#
#1453
1"
#1454
0"
#1455
1"
1#
b000000000100 !
#1456
0"
#1457
1"
b000000000101 !
#1458
0"
0#
#1459
1"
#1460
0"
#1461
1"
1#
b000000000110 !
#1462
0"
#1463
1"
b000000000111 !
#1464
0"
0#
#1465
1"
#1466
0"
#1467
1"
1#
b000000001000 !
#1468
0"
#1469
1"
b000000001001 !
#1470
0"
0#
#1471
1"
#1472
0"
#1473
1"
1#
b000000001010 !
#1474
0"
#1475
1"
b000000001011 !
#1476
0"
0#
#1477
1"
#1478
0"
#1479
1"
1#
b000000001100 !
