Counter-12bit/test_counter.vcd
$date
    Wed Feb 10 00:44:51 2021
$end
$version
    MyHDL 0.11
$end
$timescale
    1ns
$end

$scope module test_counter $end
$var reg 12 ! count $end
$var reg 1 " clk $end
$var reg 1 # en $end
$scope module counter0 $end
$var reg 1 " clk $end
$var reg 12 ! count $end
$var reg 1 # enable $end
$upscope $end
$upscope $end

$enddefinitions $end
$dumpvars
b000000000000 !
0"
0#
$end
#1
1"
#2
0"
#3
1"
1#
b000000000001 !
#4
0"
#5
1"
b000000000010 !
#6
0"
0#
#7
1"
#8
0"
#9
1"
1#
b000000000011 !
#10
0"
#11
1"
b000000000100 !
#12
0"
0#
#13
1"
#14
0"
#15
1"
1#
b000000000101 !
#16
0"
#17
1"
b000000000110 !
#18
0"
0#
#19
1"
#20
0"
#21
1"
1#
b000000000111 !
#22
0"
#23
1"
b000000001000 !
#24
0"
0#
#25
1"
#26
0"
#27
1"
1#
b000000001001 !
#28
0"
#29
1"
b000000001010 !
#30
0"
0#
#31
1"
#32
0"
#33
1"
1#
b000000001011 !
#34
0"
#35
1"
b000000001100 !
#36
0"
0#
#37
1"
#38
0"
#39
1"
1#
b000000001101 !
#40
0"
#41
1"
b000000001110 !
#42
0"
0#
#43
1"
#44
0"
#45
1"
1#
b000000001111 !
#46
0"
#47
1"
b000000010000 !
#48
0"
0#
#49
1"
#50
0"
#51
1"
1#
b000000010001 !
#52
0"
#53
1"
b000000010010 !
#54
0"
0#
#55
1"
#56
0"
#57
1"
1#
b000000010011 !
#58
0"
#59
1"
b000000010100 !
#60
0"
0#
#61
1"
#62
0"
#63
1"
1#
b000000010101 !
#64
0"
#65
1"
b000000010110 !
#66
0"
0#
#67
1"
#68
0"
#69
1"
1#
b000000010111 !
#70
0"
#71
1"
b000000011000 !
#72
0"
0#
#73
1"
#74
0"
#75
1"
1#
b000000011001 !
#76
0"
#77
1"
b000000011010 !
#78
0"
0#
#79
1"
#80
0"
#81
1"
1#
b000000011011 !
#82
0"
#83
1"
b000000011100 !
#84
0"
0#
#85
1"
#86
0"
#87
1"
1#
b000000011101 !
#88
0"
#89
1"
b000000011110 !
#90
0"
0#
#91
1"
#92
0"
#93
1"
1#
b000000011111 !
#94
0"
#95
1"
b000000100000 !
#96
0"
0#
#97
1"
#98
0"
#99
1"
1#
b000000100001 !
#100
0"
#101
1"
b000000100010 !
#102
0"
0#
#103
1"
#104
0"
#105
1"
1#
b000000100011 !
#106
0"
#107
1"
b000000100100 !
#108
0"
0#
#109
1"
#110
0"
#111
1"
1#
b000000100101 !
#112
0"
#113
1"
b000000100110 !
#114
0"
0#
#115
1"
#116
0"
#117
1"
1#
b000000100111 !
#118
0"
#119
1"
b000000101000 !
#120
0"
0#
#121
1"
#122
0"
#123
1"
1#
b000000101001 !
#124
0"
#125
1"
b000000101010 !
#126
0"
0#
#127
1"
#128
0"
#129
1"
1#
b000000101011 !
#130
0"
#131
1"
b000000101100 !
#132
0"
0#
#133
1"
#134
0"
#135
1"
1#
b000000101101 !
#136
0"
#137
1"
b000000101110 !
#138
0"
0#
#139
1"
#140
0"
#141
1"
1#
b000000101111 !
#142
0"
#143
1"
b000000110000 !
#144
0"
0#
#145
1"
#146
0"
#147
1"
1#
b000000110001 !
#148
0"
#149
1"
b000000110010 !
#150
0"
0#
#151
1"
#152
0"
#153
1"
1#
b000000110011 !
#154
0"
#155
1"
b000000110100 !
#156
0"
0#
#157
1"
#158
0"
#159
1"
1#
b000000110101 !
#160
0"
#161
1"
b000000110110 !
#162
0"
0#
#163
1"
#164
0"
#165
1"
1#
b000000110111 !
#166
0"
#167
1"
b000000111000 !
#168
0"
0#
#169
1"
#170
0"
#171
1"
1#
b000000111001 !
#172
0"
#173
1"
b000000111010 !
#174
0"
0#
#175
1"
#176
0"
#177
1"
1#
b000000111011 !
#178
0"
#179
1"
b000000111100 !
#180
0"
0#
#181
1"
#182
0"
#183
1"
1#
b000000111101 !
#184
0"
#185
1"
b000000111110 !
#186
0"
0#
#187
1"
#188
0"
#189
1"
1#
b000000111111 !
#190
0"
#191
1"
b000001000000 !
#192
0"
0#
#193
1"
#194
0"
#195
1"
1#
b000001000001 !
#196
0"
#197
1"
b000001000010 !
#198
0"
0#
#199
1"
#200
0"
#201
1"
1#
b000001000011 !
#202
0"
#203
1"
b000001000100 !
#204
0"
0#
#205
1"
#206
0"
#207
1"
1#
b000001000101 !
#208
0"
#209
1"
b000001000110 !
#210
0"
0#
#211
1"
#212
0"
#213
1"
1#
b000001000111 !
#214
0"
#215
1"
b000001001000 !
#216
0"
0#
#217
1"
#218
0"
#219
1"
1#
b000001001001 !
#220
0"
#221
1"
b000001001010 !
#222
0"
0#
#223
1"
#224
0"
#225
1"
1#
b000001001011 !
#226
0"
#227
1"
b000001001100 !
#228
0"
0#
#229
1"
#230
0"
#231
1"
1#
b000001001101 !
#232
0"
#233
1"
b000001001110 !
#234
0"
0#
#235
1"
#236
0"
#237
1"
1#
b000001001111 !
#238
0"
#239
1"
b000001010000 !
#240
0"
0#
#241
1"
#242
0"
#243
1"
1#
b000001010001 !
#244
0"
#245
1"
b000001010010 !
#246
0"
0#
#247
1"
#248
0"
#249
1"
1#
b000001010011 !
#250
0"
#251
1"
b000001010100 !
#252
0"
0#
#253
1"
#254
0"
#255
1"
1#
b000001010101 !
#256
0"
#257
1"
b000001010110 !
#258
0"
0#
#259
1"
#260
0"
#261
1"
1#
b000001010111 !
#262
0"
#263
1"
b000001011000 !
#264
0"
0#
#265
1"
#266
0"
#267
1"
1#
b000001011001 !
#268
0"
#269
1"
b000001011010 !
#270
0"
0#
#271
1"
#272
0"
#273
1"
1#
b000001011011 !
#274
0"
#275
1"
b000001011100 !
#276
0"
0#
#277
1"
#278
0"
#279
1"
1#
b000001011101 !
#280
0"
#281
1"
b000001011110 !
#282
0"
0#
#283
1"
#284
0"
#285
1"
1#
b000001011111 !
#286
0"
#287
1"
b000001100000 !
#288
0"
0#
#289
1"
#290
0"
#291
1"
1#
b000001100001 !
#292
0"
#293
1"
b000001100010 !
#294
0"
0#
#295
1"
#296
0"
#297
1"
1#
b000001100011 !
#298
0"
#299
1"
b000001100100 !
#300
0"
0#
#301
1"
#302
0"
#303
1"
1#
b000001100101 !
#304
0"
#305
1"
b000001100110 !
#306
0"
0#
#307
1"
#308
0"
#309
1"
1#
b000001100111 !
#310
0"
#311
1"
b000001101000 !
#312
0"
0#
#313
1"
#314
0"
#315
1"
1#
b000001101001 !
#316
0"
#317
1"
b000001101010 !
#318
0"
0#
#319
1"
#320
0"
#321
1"
1#
b000001101011 !
#322
0"
#323
1"
b000001101100 !
#324
0"
0#
#325
1"
#326
0"
#327
1"
1#
b000001101101 !
#328
0"
#329
1"
b000001101110 !
#330
0"
0#
#331
1"
#332
0"
#333
1"
1#
b000001101111 !
#334
0"
#335
1"
b000001110000 !
#336
0"
0#
#337
1"
#338
0"
#339
1"
1#
b000001110001 !
#340
0"
#341
1"
b000001110010 !
#342
0"
0#
#343
1"
#344
0"
#345
1"
1#
b000001110011 !
#346
0"
#347
1"
b000001110100 !
#348
0"
0#
#349
1"
#350
0"
#351
1"
1#
b000001110101 !
#352
0"
#353
1"
b000001110110 !
#354
0"
0#
#355
1"
#356
0"
#357
1"
1#
b000001110111 !
#358
0"
#359
1"
b000001111000 !
#360
0"
0#
#361
1"
#362
0"
#363
1"
1#
b000001111001 !
#364
0"
#365
1"
b000001111010 !
#366
0"
0#
#367
1"
#368
0"
#369
1"
1#
b000001111011 !
#370
0"
#371
1"
b000001111100 !
#372
0"
0#
#373
1"
#374
0"
#375
1"
1#
b000001111101 !
#376
0"
#377
1"
b000001111110 !
#378
0"
0#
#379
1"
#380
0"
#381
1"
1#
b000001111111 !
#382
0"
#383
1"
b000010000000 !
#384
0"
0#
#385
1"
#386
0"
#387
1"
1#
b000010000001 !
#388
0"
#389
1"
b000010000010 !
#390
0"
0#
#391
1"
#392
0"
#393
1"
1#
b000010000011 !
#394
0"
#395
1"
b000010000100 !
#396
0"
0#
#397
1"
#398
0"
#399
1"
1#
b000010000101 !
#400
0"
#401
1"
b000010000110 !
#402
0"
0#
#403
1"
#404
0"
#405
1"
1#
b000010000111 !
#406
0"
#407
1"
b000010001000 !
#408
0"
0#
#409
1"
#410
0"
#411
1"
1#
b000010001001 !
#412
0"
#413
1"
b000010001010 !
#414
0"
0#
#415
1"
#416
0"
#417
1"
1#
b000010001011 !
#418
0"
#419
1"
b000010001100 !
#420
0"
0#
#421
1"
#422
0"
#423
1"
1#
b000010001101 !
#424
0"
#425
1"
b000010001110 !
#426
0"
0#
#427
1"
#428
0"
#429
1"
1#
b000010001111 !
#430
0"
#431
1"
b000010010000 !
#432
0"
0#
#433
1"
#434
0"
#435
1"
1#
b000010010001 !
#436
0"
#437
1"
b000010010010 !
#438
0"
0#
#439
1"
#440
0"
#441
1"
1#
b000010010011 !
#442
0"
#443
1"
b000010010100 !
#444
0"
0#
#445
1"
#446
0"
#447
1"
1#
b000010010101 !
#448
0"
#449
1"
b000010010110 !
#450
0"
0#
#451
1"
#452
0"
#453
1"
1#
b000010010111 !
#454
0"
#455
1"
b000010011000 !
#456
0"
0#
#457
1"
#458
0"
#459
1"
1#
b000010011001 !
#460
0"
#461
1"
b000010011010 !
#462
0"
0#
#463
1"
#464
0"
#465
1"
1#
b000010011011 !
#466
0"
#467
1"
b000010011100 !
#468
0"
0#
#469
1"
#470
0"
#471
1"
1#
b000010011101 !
#472
0"
#473
1"
b000010011110 !
#474
0"
0#
#475
1"
#476
0"
#477
1"
1#
b000010011111 !
#478
0"
#479
1"
b000010100000 !
#480
0"
0#
#481
1"
#482
0"
#483
1"
1#
b000010100001 !
#484
0"
#485
1"
b000010100010 !
#486
0"
0#
#487
1"
#488
0"
#489
1"
1#
b000010100011 !
#490
0"
#491
1"
b000010100100 !
#492
0"
0#
#493
1"
#494
0"
#495
1"
1#
b000010100101 !
#496
0"
#497
1"
b000010100110 !
#498
0"
0#
#499
1"
#500
0"
#501
1"
1#
b000010100111 !
#502
0"
#503
1"
b000010101000 !
#504
0"
0#
#505
1"
#506
0"
#507
1"
1#
b000010101001 !
#508
0"
#509
1"
b000010101010 !
#510
0"
0#
#511
1"
#512
0"
#513
1"
1#
b000010101011 !
#514
0"
#515
1"
b000010101100 !
#516
0"
0#
#517
1"
#518
0"
#519
1"
1#
b000010101101 !
#520
0"
#521
1"
b000010101110 !
#522
0"
0#
#523
1"
#524
0"
#525
1"
1#
b000010101111 !
#526
0"
#527
1"
b000010110000 !
#528
0"
0#
#529
1"
#530
0"
#531
1"
1#
b000010110001 !
#532
0"
#533
1"
b000010110010 !
#534
0"
0#
#535
1"
#536
0"
#537
1"
1#
b000010110011 !
#538
0"
#539
1"
b000010110100 !
#540
0"
0#
#541
1"
#542
0"
#543
1"
1#
b000010110101 !
#544
0"
#545
1"
b000010110110 !
#546
0"
0#
#547
1"
#548
0"
#549
1"
1#
b000010110111 !
#550
0"
#551
1"
b000010111000 !
#552
0"
0#
#553
1"
#554
0"
#555
1"
1#
b000010111001 !
#556
0"
#557
1"
b000010111010 !
#558
0"
0#
#559
1"
#560
0"
#561
1"
1#
b000010111011 !
#562
0"
#563
1"
b000010111100 !
#564
0"
0#
#565
1"
#566
0"
#567
1"
1#
b000010111101 !
#568
0"
#569
1"
b000010111110 !
#570
0"
0#
#571
1"
#572
0"
#573
1"
1#
b000010111111 !
#574
0"
#575
1"
b000011000000 !
#576
0"
0#
#577
1"
#578
0"
#579
1"
1#
b000011000001 !
#580
0"
#581
1"
b000011000010 !
#582
0"
0#
#583
1"
#584
0"
#585
1"
1#
b000011000011 !
#586
0"
#587
1"
b000011000100 !
#588
0"
0#
#589
1"
#590
0"
#591
1"
1#
b000011000101 !
#592
0"
#593
1"
b000011000110 !
#594
0"
0#
#595
1"
#596
0"
#597
1"
1#
b000011000111 !
#598
0"
#599
1"
b000011001000 !
#600
0"
0#
#601
1"
#602
0"
#603
1"
1#
b000011001001 !
#604
0"
#605
1"
b000011001010 !
#606
0"
0#
#607
1"
#608
0"
#609
1"
1#
b000011001011 !
#610
0"
#611
1"
b000011001100 !
#612
0"
0#
#613
1"
#614
0"
#615
1"
1#
b000011001101 !
#616
0"
#617
1"
b000011001110 !
#618
0"
0#
#619
1"
#620
0"
#621
1"
1#
b000011001111 !
#622
0"
#623
1"
b000011010000 !
#624
0"
0#
#625
1"
#626
0"
#627
1"
1#
b000011010001 !
#628
0"
#629
1"
b000011010010 !
#630
0"
0#
#631
1"
#632
0"
#633
1"
1#
b000011010011 !
#634
0"
#635
1"
b000011010100 !
#636
0"
0#
#637
1"
#638
0"
#639
1"
1#
b000011010101 !
#640
0"
#641
1"
b000011010110 !
#642
0"
0#
#643
1"
#644
0"
#645
1"
1#
b000011010111 !
#646
0"
#647
1"
b000011011000 !
#648
0"
0#
#649
1"
#650
0"
#651
1"
1#
b000011011001 !
#652
0"
#653
1"
b000011011010 !
#654
0"
0#
#655
1"
#656
0"
#657
1"
1#
b000011011011 !
#658
0"
#659
1"
b000011011100 !
#660
0"
0#
#661
1"
#662
0"
#663
1"
1#
b000011011101 !
#664
0"
#665
1"
b000011011110 !
#666
0"
0#
#667
1"
#668
0"
#669
1"
1#
b000011011111 !
#670
0"
#671
1"
b000011100000 !
#672
0"
0#
#673
1"
#674
0"
#675
1"
1#
b000011100001 !
#676
0"
#677
1"
b000011100010 !
#678
0"
0#
#679
1"
#680
0"
#681
1"
1#
b000011100011 !
#682
0"
#683
1"
b000011100100 !
#684
0"
0#
#685
1"
#686
0"
#687
1"
1#
b000011100101 !
#688
0"
#689
1"
b000011100110 !
#690
0"
0#
#691
1"
#692
0"
#693
1"
1#
b000011100111 !
#694
0"
#695
1"
b000011101000 !
#696
0"
0#
#697
1"
#698
0"
#699
1"
1#
b000011101001 !
#700
0"
#701
1"
b000011101010 !
#702
0"
0#
#703
1"
#704
0"
#705
1"
1#
b000011101011 !
#706
0"
#707
1"
b000011101100 !
#708
0"
0#
#709
1"
#710
0"
#711
1"
1#
b000011101101 !
#712
0"
#713
1"
b000011101110 !
#714
0"
0#
#715
1"
#716
0"
#717
1"
1#
b000011101111 !
#718
0"
#719
1"
b000011110000 !
#720
0"
0#
#721
1"
#722
0"
#723
1"
1#
b000011110001 !
#724
0"
#725
1"
b000011110010 !
#726
0"
0#
#727
1"
#728
0"
#729
1"
1#
b000011110011 !
#730
0"
#731
1"
b000011110100 !
#732
0"
0#
#733
1"
#734
0"
#735
1"
1#
b000011110101 !
#736
0"
#737
1"
b000011110110 !
#738
0"
0#
#739
1"
#740
0"
#741
1"
1#
b000011110111 !
#742
0"
#743
1"
b000011111000 !
#744
0"
0#
#745
1"
#746
0"
#747
1"
1#
b000011111001 !
#748
0"
#749
1"
b000011111010 !
#750
0"
0#
#751
1"
#752
0"
#753
1"
1#
b000011111011 !
#754
0"
#755
1"
b000011111100 !
#756
0"
0#
#757
1"
#758
0"
#759
1"
1#
b000011111101 !
#760
0"
#761
1"
b000011111110 !
#762
0"
0#
#763
1"
#764
0"
#765
1"
1#
b000011111111 !
#766
0"
#767
1"
b000100000000 !
#768
0"
0#
#769
1"
#770
0"
#771
1"
1#
b000100000001 !
#772
0"
#773
1"
b000100000010 !
#774
0"
0#
#775
1"
#776
0"
#777
1"
1#
b000100000011 !
#778
0"
#779
1"
b000100000100 !
#780
0"
0#
#781
1"
#782
0"
#783
1"
1#
b000100000101 !
#784
0"
#785
1"
b000100000110 !
#786
0"
0#
#787
1"
#788
0"
#789
1"
1#
b000100000111 !
#790
0"
#791
1"
b000100001000 !
#792
0"
0#
#793
1"
#794
0"
#795
1"
1#
b000100001001 !
#796
0"
#797
1"
b000100001010 !
#798
0"
0#
#799
1"
#800
0"
#801
1"
1#
b000100001011 !
#802
0"
#803
1"
b000100001100 !
#804
0"
0#
#805
1"
#806
0"
#807
1"
1#
b000100001101 !
#808
0"
#809
1"
b000100001110 !
#810
0"
0#
#811
1"
#812
0"
#813
1"
1#
b000100001111 !
#814
0"
#815
1"
b000100010000 !
#816
0"
0#
#817
1"
#818
0"
#819
1"
1#
b000100010001 !
#820
0"
#821
1"
b000100010010 !
#822
0"
0#
#823
1"
#824
0"
#825
1"
1#
b000100010011 !
#826
0"
#827
1"
b000100010100 !
#828
0"
0#
#829
1"
#830
0"
#831
1"
1#
b000100010101 !
#832
0"
#833
1"
b000100010110 !
#834
0"
0#
#835
1"
#836
0"
#837
1"
1#
b000100010111 !
#838
0"
#839
1"
b000100011000 !
#840
0"
0#
#841
1"
#842
0"
#843
1"
1#
b000100011001 !
#844
0"
#845
1"
b000100011010 !
#846
0"
0#
#847
1"
#848
0"
#849
1"
1#
b000100011011 !
#850
0"
#851
1"
b000100011100 !
#852
0"
0#
#853
1"
#854
0"
#855
1"
1#
b000100011101 !
#856
0"
#857
1"
b000100011110 !
#858
0"
0#
#859
1"
#860
0"
#861
1"
1#
b000100011111 !
#862
0"
#863
1"
b000100100000 !
#864
0"
0#
#865
1"
#866
0"
#867
1"
1#
b000100100001 !
#868
0"
#869
1"
b000100100010 !
#870
0"
0#
#871
1"
#872
0"
#873
1"
1#
b000100100011 !
#874
0"
#875
1"
b000100100100 !
#876
0"
0#
#877
1"
#878
0"
#879
1"
1#
b000100100101 !
#880
0"
#881
1"
b000100100110 !
#882
0"
0#
#883
1"
#884
0"
#885
1"
1#
b000100100111 !
#886
0"
#887
1"
b000100101000 !
#888
0"
0#
#889
1"
#890
0"
#891
1"
1#
b000100101001 !
#892
0"
#893
1"
b000100101010 !
#894
0"
0#
#895
1"
#896
0"
#897
1"
1#
b000100101011 !
#898
0"
#899
1"
b000100101100 !
#900
0"
0#
#901
1"
#902
0"
#903
1"
1#
b000100101101 !
#904
0"
#905
1"
b000100101110 !
#906
0"
0#
#907
1"
#908
0"
#909
1"
1#
b000100101111 !
#910
0"
#911
1"
b000100110000 !
#912
0"
0#
#913
1"
#914
0"
#915
1"
1#
b000100110001 !
#916
0"
#917
1"
b000100110010 !
#918
0"
0#
#919
1"
#920
0"
#921
1"
1#
b000100110011 !
#922
0"
#923
1"
b000100110100 !
#924
0"
0#
#925
1"
#926
0"
#927
1"
1#
b000100110101 !
#928
0"
#929
1"
b000100110110 !
#930
0"
0#
#931
1"
#932
0"
#933
1"
1#
b000100110111 !
#934
0"
#935
1"
b000100111000 !
#936
0"
0#
#937
1"
#938
0"
#939
1"
1#
b000100111001 !
#940
0"
#941
1"
b000100111010 !
#942
0"
0#
#943
1"
#944
0"
#945
1"
1#
b000100111011 !
#946
0"
#947
1"
b000100111100 !
#948
0"
0#
#949
1"
#950
0"
#951
1"
1#
b000100111101 !
#952
0"
#953
1"
b000100111110 !
#954
0"
0#
#955
1"
#956
0"
#957
1"
1#
b000100111111 !
#958
0"
#959
1"
b000101000000 !
#960
0"
0#
#961
1"
#962
0"
#963
1"
1#
b000101000001 !
#964
0"
#965
1"
b000101000010 !
#966
0"
0#
#967
1"
#968
0"
#969
1"
1#
b000101000011 !
#970
0"
#971
1"
b000101000100 !
#972
0"
0#
#973
1"
#974
0"
#975
1"
1#
b000101000101 !
#976
0"
#977
1"
b000101000110 !
#978
0"
0#
#979
1"
#980
0"
#981
1"
1#
b000101000111 !
#982
0"
#983
1"
b000101001000 !
#984
0"
0#
#985
1"
#986
0"
#987
1"
1#
b000101001001 !
#988
0"
#989
1"
b000101001010 !
#990
0"
0#
#991
1"
#992
0"
#993
1"
1#
b000101001011 !
#994
0"
#995
1"
b000101001100 !
#996
0"
0#
#997
1"
#998
0"
#999
1"
1#
b000101001101 !
#1000
0"
#1001
1"
b000101001110 !
#1002
0"
0#
#1003
1"
#1004
0"
#1005
1"
1#
b000101001111 !
#1006
0"
#1007
1"
b000101010000 !
#1008
0"
0#
#1009
1"
#1010
0"
#1011
1"
1#
b000101010001 !
#1012
0"
#1013
1"
b000101010010 !
#1014
0"
0#
#1015
1"
#1016
0"
#1017
1"
1#
b000101010011 !
#1018
0"
#1019
1"
b000101010100 !
#1020
0"
0#
#1021
1"
#1022
0"
#1023
1"
1#
b000101010101 !
#1024
0"
#1025
1"
b000101010110 !
#1026
0"
0#
#1027
1"
#1028
0"
#1029
1"
1#
b000101010111 !
#1030
0"
#1031
1"
b000101011000 !
#1032
0"
0#
#1033
1"
#1034
0"
#1035
1"
1#
b000101011001 !
#1036
0"
#1037
1"
b000101011010 !
#1038
0"
0#
#1039
1"
#1040
0"
#1041
1"
1#
b000101011011 !
#1042
0"
#1043
1"
b000101011100 !
#1044
0"
0#
#1045
1"
#1046
0"
#1047
1"
1#
b000101011101 !
#1048
0"
#1049
1"
b000101011110 !
#1050
0"
0#
#1051
1"
#1052
0"
#1053
1"
1#
b000101011111 !
#1054
0"
#1055
1"
b000101100000 !
#1056
0"
0#
#1057
1"
#1058
0"
#1059
1"
1#
b000101100001 !
#1060
0"
#1061
1"
b000101100010 !
#1062
0"
0#
#1063
1"
#1064
0"
#1065
1"
1#
b000101100011 !
#1066
0"
#1067
1"
b000101100100 !
#1068
0"
0#
#1069
1"
#1070
0"
#1071
1"
1#
b000101100101 !
#1072
0"
#1073
1"
b000101100110 !
#1074
0"
0#
#1075
1"
#1076
0"
#1077
1"
1#
b000101100111 !
#1078
0"
#1079
1"
b000101101000 !
#1080
0"
0#
#1081
1"
#1082
0"
#1083
1"
1#
b000101101001 !
#1084
0"
#1085
1"
b000101101010 !
#1086
0"
0#
#1087
1"
#1088
0"
#1089
1"
1#
b000101101011 !
#1090
0"
#1091
1"
b000101101100 !
#1092
0"
0#
#1093
1"
#1094
0"
#1095
1"
1#
b000101101101 !
#1096
0"
#1097
1"
b000101101110 !
#1098
0"
0#
#1099
1"
#1100
0"
#1101
1"
1#
b000101101111 !
#1102
0"
#1103
1"
b000101110000 !
#1104
0"
0#
#1105
1"
#1106
0"
#1107
1"
1#
b000101110001 !
#1108
0"
#1109
1"
b000101110010 !
#1110
0"
0#
#1111
1"
#1112
0"
#1113
1"
1#
b000101110011 !
#1114
0"
#1115
1"
b000101110100 !
#1116
0"
0#
#1117
1"
#1118
0"
#1119
1"
1#
b000101110101 !
#1120
0"
#1121
1"
b000101110110 !
#1122
0"
0#
#1123
1"
#1124
0"
#1125
1"
1#
b000101110111 !
#1126
0"
#1127
1"
b000101111000 !
#1128
0"
0#
#1129
1"
#1130
0"
#1131
1"
1#
b000101111001 !
#1132
0"
#1133
1"
b000101111010 !
#1134
0"
0#
#1135
1"
#1136
0"
#1137
1"
1#
b000101111011 !
#1138
0"
#1139
1"
b000101111100 !
#1140
0"
0#
#1141
1"
#1142
0"
#1143
1"
1#
b000101111101 !
#1144
0"
#1145
1"
b000101111110 !
#1146
0"
0#
#1147
1"
#1148
0"
#1149
1"
1#
b000101111111 !
#1150
0"
#1151
1"
b000110000000 !
#1152
0"
0#
#1153
1"
#1154
0"
#1155
1"
1#
b000110000001 !
#1156
0"
#1157
1"
b000110000010 !
#1158
0"
0#
#1159
1"
#1160
0"
#1161
1"
1#
b000110000011 !
#1162
0"
#1163
1"
b000110000100 !
#1164
0"
0#
#1165
1"
#1166
0"
#1167
1"
1#
b000110000101 !
#1168
0"
#1169
1"
b000110000110 !
#1170
0"
0#
#1171
1"
#1172
0"
#1173
1"
1#
b000110000111 !
#1174
0"
#1175
1"
b000110001000 !
#1176
0"
0#
#1177
1"
#1178
0"
#1179
1"
1#
b000110001001 !
#1180
0"
#1181
1"
b000110001010 !
#1182
0"
0#
#1183
1"
#1184
0"
#1185
1"
1#
b000110001011 !
#1186
0"
#1187
1"
b000110001100 !
#1188
0"
0#
#1189
1"
#1190
0"
#1191
1"
1#
b000110001101 !
#1192
0"
#1193
1"
b000110001110 !
#1194
0"
0#
#1195
1"
#1196
0"
#1197
1"
1#
b000110001111 !
#1198
0"
#1199
1"
b000110010000 !
#1200
0"
0#
#1201
1"
#1202
0"
#1203
1"
1#
b000110010001 !
#1204
0"
#1205
1"
b000110010010 !
#1206
0"
0#
#1207
1"
#1208
0"
#1209
1"
1#
b000110010011 !
#1210
0"
#1211
1"
b000110010100 !
#1212
0"
0#
#1213
1"
#1214
0"
#1215
1"
1#
b000110010101 !
#1216
0"
#1217
1"
b000110010110 !
#1218
0"
0#
#1219
1"
#1220
0"
#1221
1"
1#
b000110010111 !
#1222
0"
#1223
1"
b000110011000 !
#1224
0"
0#
#1225
1"
#1226
0"
#1227
1"
1#
b000110011001 !
#1228
0"
#1229
1"
b000110011010 !
#1230
0"
0#
#1231
1"
#1232
0"
#1233
1"
1#
b000110011011 !
#1234
0"
#1235
1"
b000110011100 !
#1236
0"
0#
#1237
1"
#1238
0"
#1239
1"
1#
b000110011101 !
#1240
0"
#1241
1"
b000110011110 !
#1242
0"
0#
#1243
1"
#1244
0"
#1245
1"
1#
b000110011111 !
#1246
0"
#1247
1"
b000110100000 !
#1248
0"
0#
#1249
1"
#1250
0"
#1251
1"
1#
b000110100001 !
#1252
0"
#1253
1"
b000110100010 !
#1254
0"
0#
#1255
1"
#1256
0"
#1257
1"
1#
b000110100011 !
#1258
0"
#1259
1"
b000110100100 !
#1260
0"
0#
#1261
1"
#1262
0"
#1263
1"
1#
b000110100101 !
#1264
0"
#1265
1"
b000110100110 !
#1266
0"
0#
#1267
1"
#1268
0"
#1269
1"
1#
b000110100111 !
#1270
0"
#1271
1"
b000110101000 !
#1272
0"
0#
#1273
1"
#1274
0"
#1275
1"
1#
b000110101001 !
#1276
0"
#1277
1"
b000110101010 !
#1278
0"
0#
#1279
1"
#1280
0"
#1281
1"
1#
b000110101011 !
#1282
0"
#1283
1"
b000110101100 !
#1284
0"
0#
#1285
1"
#1286
0"
#1287
1"
1#
b000110101101 !
#1288
0"
#1289
1"
b000110101110 !
#1290
0"
0#
#1291
1"
#1292
0"
#1293
1"
1#
b000110101111 !
#1294
0"
#1295
1"
b000110110000 !
#1296
0"
0#
#1297
1"
#1298
0"
#1299
1"
1#
b000110110001 !
#1300
0"
#1301
1"
b000110110010 !
#1302
0"
0#
#1303
1"
#1304
0"
#1305
1"
1#
b000110110011 !
#1306
0"
#1307
1"
b000110110100 !
#1308
0"
0#
#1309
1"
#1310
0"
#1311
1"
1#
b000110110101 !
#1312
0"
#1313
1"
b000110110110 !
#1314
0"
0#
#1315
1"
#1316
0"
#1317
1"
1#
b000110110111 !
#1318
0"
#1319
1"
b000110111000 !
#1320
0"
0#
#1321
1"
#1322
0"
#1323
1"
1#
b000110111001 !
#1324
0"
#1325
1"
b000110111010 !
#1326
0"
0#
#1327
1"
#1328
0"
#1329
1"
1#
b000110111011 !
#1330
0"
#1331
1"
b000110111100 !
#1332
0"
0#
#1333
1"
#1334
0"
#1335
1"
1#
b000110111101 !
#1336
0"
#1337
1"
b000110111110 !
#1338
0"
0#
#1339
1"
#1340
0"
#1341
1"
1#
b000110111111 !
#1342
0"
#1343
1"
b000111000000 !
#1344
0"
0#
#1345
1"
#1346
0"
#1347
1"
1#
b000111000001 !
#1348
0"
#1349
1"
b000111000010 !
#1350
0"
0#
#1351
1"
#1352
0"
#1353
1"
1#
b000111000011 !
#1354
0"
#1355
1"
b000111000100 !
#1356
0"
0#
#1357
1"
#1358
0"
#1359
1"
1#
b000111000101 !
#1360
0"
#1361
1"
b000111000110 !
#1362
0"
0#
#1363
1"
#1364
0"
#1365
1"
1#
b000111000111 !
#1366
0"
#1367
1"
b000111001000 !
#1368
0"
0#
#1369
1"
#1370
0"
#1371
1"
1#
b000111001001 !
#1372
0"
#1373
1"
b000111001010 !
#1374
0"
0#
#1375
1"
#1376
0"
#1377
1"
1#
b000111001011 !
#1378
0"
#1379
1"
b000111001100 !
#1380
0"
0#
#1381
1"
#1382
0"
#1383
1"
1#
b000111001101 !
#1384
0"
#1385
1"
b000111001110 !
#1386
0"
0#
#1387
1"
#1388
0"
#1389
1"
1#
b000111001111 !
#1390
0"
#1391
1"
b000111010000 !
#1392
0"
0#
#1393
1"
#1394
0"
#1395
1"
1#
b000111010001 !
#1396
0"
#1397
1"
b000111010010 !
#1398
0"
0#
#1399
1"
#1400
0"
#1401
1"
1#
b000111010011 !
#1402
0"
#1403
1"
b000111010100 !
#1404
0"
0#
#1405
1"
#1406
0"
#1407
1"
1#
b000111010101 !
#1408
0"
#1409
1"
b000111010110 !
#1410
0"
0#
#1411
1"
#1412
0"
#1413
1"
1#
b000111010111 !
#1414
0"
#1415
1"
b000111011000 !
#1416
0"
0#
#1417
1"
#1418
0"
#1419
1"
1#
b000111011001 !
#1420
0"
#1421
1"
b000111011010 !
#1422
0"
0#
#1423
1"
#1424
0"
#1425
1"
1#
b000111011011 !
#1426
0"
#1427
1"
b000111011100 !
#1428
0"
0#
#1429
1"
#1430
0"
#1431
1"
1#
b000111011101 !
#1432
0"
#1433
1"
b000111011110 !
#1434
0"
0#
#1435
1"
#1436
0"
#1437
1"
1#
b000111011111 !
#1438
0"
#1439
1"
b000111100000 !
#1440
0"
0#
#1441
1"
#1442
0"
#1443
1"
1#
b000111100001 !
#1444
0"
#1445
1"
b000111100010 !
#1446
0"
0#
#1447
1"
#1448
0"
#1449
1"
1#
b000111100011 !
#1450
0"
#1451
1"
b000111100100 !
#1452
0"
0#
#1453
1"
#1454
0"
#1455
1"
1#
b000111100101 !
#1456
0"
#1457
1"
b000111100110 !
#1458
0"
0#
#1459
1"
#1460
0"
#1461
1"
1#
b000111100111 !
#1462
0"
#1463
1"
b000111101000 !
#1464
0"
0#
#1465
1"
#1466
0"
#1467
1"
1#
b000111101001 !
#1468
0"
#1469
1"
b000111101010 !
#1470
0"
0#
#1471
1"
#1472
0"
#1473
1"
1#
b000111101011 !
#1474
0"
#1475
1"
b000111101100 !
#1476
0"
0#
#1477
1"
#1478
0"
#1479
1"
1#
b000111101101 !
