Counter-12bit/test_counter.vcd
$date
    Thu Feb 11 18:55:30 2021
$end
$version
    MyHDL 0.11
$end
$timescale
    1ns
$end

$scope module test_counter $end
$var reg 12 ! count $end
$var reg 1 " c_en $end
$var reg 1 # clk $end
$var reg 1 $ rst $end
$var reg 1 % w_en $end
$var reg 12 & write_in $end
$scope module counter0 $end
$var reg 1 # clk $end
$var reg 1 $ rst $end
$var reg 1 " c_en $end
$var reg 12 ! count $end
$var reg 1 % w_en $end
$var reg 12 & write_in $end
$upscope $end
$upscope $end

$enddefinitions $end
$dumpvars
b000000000000 !
0"
0#
0$
0%
b000000000000 &
$end
1%
1"
b111111111110 &
#5
1$
1#
b111111111110 !
#10
0#
0%
#15
1#
b111111111111 !
#20
0#
#25
1#
b000000000000 !
#30
0#
#35
1#
b000000000001 !
#40
0#
#45
1#
b000000000010 !
#50
0#
#55
1#
0$
b000000000000 !
#60
0#
1%
0"
b010000101111 &
#65
1#
1$
b010000101111 !
#70
0#
0%
1"
#75
1#
b010000110000 !
#80
0#
#85
1#
b010000110001 !
#90
0#
#95
1#
b010000110010 !
#100
0#
#105
1#
b010000110011 !
#110
0#
#115
1#
0$
b000000000000 !
#120
0#
1%
0"
b001110011110 &
#125
1#
1$
b001110011110 !
#130
0#
0%
1"
#135
1#
b001110011111 !
#140
0#
#145
1#
b001110100000 !
#150
0#
#155
1#
b001110100001 !
#160
0#
#165
1#
b001110100010 !
#170
0#
#175
1#
0$
b000000000000 !
#180
0#
1%
0"
b110000010110 &
#185
1#
1$
b110000010110 !
#190
0#
0%
1"
#195
1#
b110000010111 !
#200
0#
#205
1#
b110000011000 !
#210
0#
#215
1#
b110000011001 !
#220
0#
#225
1#
b110000011010 !
#230
0#
#235
1#
0$
b000000000000 !
#240
0#
1%
0"
b111011101110 &
#245
1#
1$
b111011101110 !
#250
0#
0%
1"
#255
1#
b111011101111 !
#260
0#
#265
1#
b111011110000 !
#270
0#
#275
1#
b111011110001 !
#280
0#
#285
1#
b111011110010 !
#290
0#
#295
1#
0$
b000000000000 !
#300
0#
1%
0"
b001000001101 &
#305
1#
1$
b001000001101 !
#310
0#
0%
1"
#315
1#
b001000001110 !
#320
0#
#325
1#
b001000001111 !
#330
0#
#335
1#
b001000010000 !
#340
0#
#345
1#
b001000010001 !
#350
0#
#355
1#
0$
b000000000000 !
#360
0#
1%
0"
b110110010001 &
#365
1#
1$
b110110010001 !
#370
0#
0%
1"
#375
1#
b110110010010 !
#380
0#
#385
1#
b110110010011 !
#390
0#
#395
1#
b110110010100 !
#400
0#
#405
1#
b110110010101 !
#410
0#
#415
1#
0$
b000000000000 !
#420
0#
1%
0"
b101100011111 &
#425
1#
1$
b101100011111 !
#430
0#
0%
1"
#435
1#
b101100100000 !
#440
0#
#445
1#
b101100100001 !
#450
0#
#455
1#
b101100100010 !
#460
0#
#465
1#
b101100100011 !
#470
0#
#475
1#
0$
b000000000000 !
#480
0#
1%
0"
b111110001010 &
#485
1#
1$
b111110001010 !
#490
0#
0%
1"
#495
1#
b111110001011 !
